reussite_27 : 114959402133
Durée d'exécution : 5339 secondes
reussite_28 : 155433400260
Durée d'exécution : 7218 secondes
reussite_29 : 67813420504
Durée d'exécution : 3148 secondes
reussite_30 : 101281608863
Durée d'exécution : 4704 secondes
reussite_31 : 18765763375
Durée d'exécution : 871 secondes
reussite_32 : 8936855853
Durée d'exécution : 415 secondes
reussite_33 : 51014041213
Durée d'exécution : 2370 secondes
reussite_34 : 147332195790
Durée d'exécution : 6842 secondes
reussite_35 : 38287201114
Durée d'exécution : 1777 secondes
